{
  "stats": {
    "suites": 1,
    "tests": 6,
    "passes": 6,
    "pending": 0,
    "failures": 0,
    "start": "2021-03-18T17:15:54.875Z",
    "end": "2021-03-18T17:16:03.780Z",
    "duration": 8905,
    "testsRegistered": 6,
    "passPercent": 100,
    "pendingPercent": 0,
    "other": 0,
    "hasOther": false,
    "skipped": 0,
    "hasSkipped": false
  },
  "results": [
    {
      "uuid": "c01b22a0-e9dc-43f3-8f2d-a85c34d8eca6",
      "title": "",
      "fullFile": "cypress/integration/TodoMVC.spec.js",
      "file": "cypress/integration/TodoMVC.spec.js",
      "beforeHooks": [],
      "afterHooks": [],
      "tests": [],
      "suites": [
        {
          "uuid": "8f715384-d9e5-4d4e-ba7a-3abc11a18fcc",
          "title": "TodoMVC Test Suite",
          "fullFile": "",
          "file": "",
          "beforeHooks": [],
          "afterHooks": [],
          "tests": [
            {
              "title": "Cadastrar itens na lista",
              "fullTitle": "TodoMVC Test Suite Cadastrar itens na lista",
              "timedOut": null,
              "duration": 1933,
              "state": "passed",
              "speed": "slow",
              "pass": true,
              "fail": false,
              "pending": false,
              "context": null,
              "code": "cy.get(el.textArea).should('have.text', 'ITEM 1');",
              "err": {},
              "uuid": "d7cf1dfd-08ee-4522-bd6b-0527c90f9a58",
              "parentUUID": "8f715384-d9e5-4d4e-ba7a-3abc11a18fcc",
              "isHook": false,
              "skipped": false
            },
            {
              "title": "Excluir itens da lista",
              "fullTitle": "TodoMVC Test Suite Excluir itens da lista",
              "timedOut": null,
              "duration": 968,
              "state": "passed",
              "speed": "slow",
              "pass": true,
              "fail": false,
              "pending": false,
              "context": null,
              "code": "_FrontPage[\"default\"].deleteItem();\n_FrontPage[\"default\"].deleteItem();\ncy.get(el.textArea).should('have.text', 'ITEM 3');",
              "err": {},
              "uuid": "addb0b38-068e-4670-98fe-b47b005ad0b1",
              "parentUUID": "8f715384-d9e5-4d4e-ba7a-3abc11a18fcc",
              "isHook": false,
              "skipped": false
            },
            {
              "title": "Marcar 1 item como completo",
              "fullTitle": "TodoMVC Test Suite Marcar 1 item como completo",
              "timedOut": null,
              "duration": 977,
              "state": "passed",
              "speed": "slow",
              "pass": true,
              "fail": false,
              "pending": false,
              "context": null,
              "code": "_FrontPage[\"default\"].completeItem();\n_FrontPage[\"default\"].clickCompleted();\ncy.get(el.textArea).should('have.text', 'ITEM 1');",
              "err": {},
              "uuid": "c2f3d54a-a9b0-4426-98a6-9dc1b99cbe85",
              "parentUUID": "8f715384-d9e5-4d4e-ba7a-3abc11a18fcc",
              "isHook": false,
              "skipped": false
            },
            {
              "title": "Selecionar filtro ACTIVE",
              "fullTitle": "TodoMVC Test Suite Selecionar filtro ACTIVE",
              "timedOut": null,
              "duration": 993,
              "state": "passed",
              "speed": "slow",
              "pass": true,
              "fail": false,
              "pending": false,
              "context": null,
              "code": "_FrontPage[\"default\"].clickActive();\ncy.get(el.textArea).should('have.text', 'ITEM 1');",
              "err": {},
              "uuid": "3084517b-6d8d-4541-8e44-7ecbabd65f0f",
              "parentUUID": "8f715384-d9e5-4d4e-ba7a-3abc11a18fcc",
              "isHook": false,
              "skipped": false
            },
            {
              "title": "Selecionar filtro COMPLETED",
              "fullTitle": "TodoMVC Test Suite Selecionar filtro COMPLETED",
              "timedOut": null,
              "duration": 943,
              "state": "passed",
              "speed": "slow",
              "pass": true,
              "fail": false,
              "pending": false,
              "context": null,
              "code": "_FrontPage[\"default\"].completeItem();\n_FrontPage[\"default\"].clickCompleted();\ncy.get(el.textAreaComplete).should('have.text', 'ITEM 1');",
              "err": {},
              "uuid": "4ababf64-4e00-455f-96fc-d4b657434993",
              "parentUUID": "8f715384-d9e5-4d4e-ba7a-3abc11a18fcc",
              "isHook": false,
              "skipped": false
            },
            {
              "title": "Selecionar CLEAR COMPLETED",
              "fullTitle": "TodoMVC Test Suite Selecionar CLEAR COMPLETED",
              "timedOut": null,
              "duration": 1076,
              "state": "passed",
              "speed": "slow",
              "pass": true,
              "fail": false,
              "pending": false,
              "context": null,
              "code": "_FrontPage[\"default\"].completeItem();\n_FrontPage[\"default\"].clearCompleted();\n_FrontPage[\"default\"].clickActive();\ncy.get(el.textArea).should('have.text', 'ITEM 2');",
              "err": {},
              "uuid": "5174aa58-bbcf-4f76-a003-eaebebb42548",
              "parentUUID": "8f715384-d9e5-4d4e-ba7a-3abc11a18fcc",
              "isHook": false,
              "skipped": false
            }
          ],
          "suites": [],
          "passes": [
            "d7cf1dfd-08ee-4522-bd6b-0527c90f9a58",
            "addb0b38-068e-4670-98fe-b47b005ad0b1",
            "c2f3d54a-a9b0-4426-98a6-9dc1b99cbe85",
            "3084517b-6d8d-4541-8e44-7ecbabd65f0f",
            "4ababf64-4e00-455f-96fc-d4b657434993",
            "5174aa58-bbcf-4f76-a003-eaebebb42548"
          ],
          "failures": [],
          "pending": [],
          "skipped": [],
          "duration": 6890,
          "root": false,
          "rootEmpty": false,
          "_timeout": 2000
        }
      ],
      "passes": [],
      "failures": [],
      "pending": [],
      "skipped": [],
      "duration": 0,
      "root": true,
      "rootEmpty": true,
      "_timeout": 2000
    }
  ],
  "meta": {
    "mocha": {
      "version": "7.0.1"
    },
    "mochawesome": {
      "options": {
        "quiet": false,
        "reportFilename": "mochawesome",
        "saveHtml": false,
        "saveJson": true,
        "consoleReporter": "spec",
        "useInlineDiffs": false,
        "code": true
      },
      "version": "6.2.2"
    },
    "marge": {
      "options": {
        "id": "default",
        "reportDir": "cypress/reports/mocha",
        "quite": true,
        "overwrite": false,
        "html": false,
        "json": true
      },
      "version": "5.2.0"
    }
  }
}